{
  "module": "application",
  "name": "SplRestService",
  "url": "/com/caspco/spl/projectgenerator/:url",
  "extraOperations": {
    "getLocales": {
      "method": "GET",
      "isArray": true,
      "params": {
        "url": "locales"
      }
    },
    "send": {
      "method": "POST",
      "isArray": false
    }
  }
}