[
  {
    "name": "classModel",
    "url": "/classModel",
    "templateUrl": "/app/view/com/caspco/spl/projectgenerator/MainPage.html",
    "controller": "XmlUploaderController"

  },
  {
    "name": "classModel.uploader",
    "url": "/uploader",
    "templateUrl": "/app/view/com/caspco/spl/projectgenerator/XmlUploader.html",
    "home": true
  }
]